// Jest Snapshot v1, https://goo.gl/fbAQLP

exports[`auth / unsername-input Default smoke-test 2`] = `
<fieldset class="mt-4">
  <label class="text-base font-normal text-slate-600 pl-px"
         for="username"
  >
    Username
  </label>
  <span>
    <input data-v-13ff3a55
           type="text"
           class="default hover focus my-2"
           id="username"
           data-testid="username"
           placeholder="Username"
           required="required"
    >
    <div class="h-[22px]">
    </div>
  </span>
</fieldset>
`;

exports[`auth / unsername-input InputError play-test 2`] = `
<fieldset class="mt-4">
  <label class="text-base font-normal text-slate-600 pl-px"
         for="username"
  >
    Username
  </label>
  <span>
    <input data-v-13ff3a55
           type="text"
           class="default hover focus my-2"
           id="username"
           data-testid="username"
           placeholder="Username"
           required="required"
           errored="true"
    >
    <div class="h-[22px]">
      <p data-v-239e6e8a
         class="text-sm font-normal pl-1 default"
      >
        <svg data-v-239e6e8a
             xmlns="http://www.w3.org/2000/svg"
             fill="none"
             viewbox="0 0 24 24"
             aria-hidden="true"
             class
        >
          <path data-v-239e6e8a
                stroke-linecap="round"
                stroke-linejoin="round"
                d="M12 9v3.75m9-.75a9 9 0 11-18 0 9 9 0 0118 0zm-9 3.75h.008v.008H12v-.008z"
          >
          </path>
        </svg>
        Username may ONLY contain alphabetic characters, numbers, dashes or underscores.
      </p>
    </div>
  </span>
</fieldset>
`;

exports[`auth / unsername-input LengthError play-test 2`] = `
<fieldset class="mt-4">
  <label class="text-base font-normal text-slate-600 pl-px"
         for="username"
  >
    Username
  </label>
  <span>
    <input data-v-13ff3a55
           type="text"
           class="default hover focus my-2"
           id="username"
           data-testid="username"
           placeholder="Username"
           required="required"
           errored="true"
    >
    <div class="h-[22px]">
      <p data-v-239e6e8a
         class="text-sm font-normal pl-1 default"
      >
        <svg data-v-239e6e8a
             xmlns="http://www.w3.org/2000/svg"
             fill="none"
             viewbox="0 0 24 24"
             aria-hidden="true"
             class
        >
          <path data-v-239e6e8a
                stroke-linecap="round"
                stroke-linejoin="round"
                d="M12 9v3.75m9-.75a9 9 0 11-18 0 9 9 0 0118 0zm-9 3.75h.008v.008H12v-.008z"
          >
          </path>
        </svg>
        Username need minimum 5 characters.
      </p>
    </div>
  </span>
</fieldset>
`;

exports[`auth / unsername-input RequiredError play-test 2`] = `
<fieldset class="mt-4">
  <label class="text-base font-normal text-slate-600 pl-px"
         for="username"
  >
    Username
  </label>
  <span>
    <input data-v-13ff3a55
           type="text"
           class="default hover focus my-2"
           id="username"
           data-testid="username"
           placeholder="Username"
           required="required"
           errored="true"
    >
    <div class="h-[22px]">
      <p data-v-239e6e8a
         class="text-sm font-normal pl-1 default"
      >
        <svg data-v-239e6e8a
             xmlns="http://www.w3.org/2000/svg"
             fill="none"
             viewbox="0 0 24 24"
             aria-hidden="true"
             class
        >
          <path data-v-239e6e8a
                stroke-linecap="round"
                stroke-linejoin="round"
                d="M12 9v3.75m9-.75a9 9 0 11-18 0 9 9 0 0118 0zm-9 3.75h.008v.008H12v-.008z"
          >
          </path>
        </svg>
        Username is a required.
      </p>
    </div>
  </span>
</fieldset>
`;
